name,age,team,game,pa,ab,run,hit,2b,3b,hr,rbi,sb,cs,bb,so,ba,obp,ops,dp,hbp,sh,sf,ibb
Hayato Sakamoto,27,YOM,137,576,488,96,168,28,3,23,75,13,3,81,67,.344,,.988,6,0,1,6,2
Seiya Suzuki,21,HIR,129,528,466,76,156,26,8,29,95,16,11,53,79,.335,,1.015,10,3,3,3,1
Yoshitomo Tsutsugo,24,YKO,133,561,469,89,151,28,4,44,110,0,1,87,105,.322,,1.110,6,3,0,2,1
Ryosuke Kikuchi,26,HIR,141,640,574,92,181,22,3,13,56,13,5,40,106,.315,,.790,3,0,23,3,0
Kosuke Fukudome,39,HAN,131,523,453,52,141,25,3,11,59,0,1,61,78,.311,,.845,6,3,0,6,5
Shinnosuke Abe,37,YOM,91,387,335,43,104,13,0,12,52,0,1,44,55,.310,,.850,8,4,1,3,1
Tetsuto Yamada,23,YKU,133,590,481,102,146,26,3,38,102,30,2,97,101,.304,,1.032,16,8,0,4,0
Shingo Kawabata,28,YKU,103,458,420,48,127,22,1,1,32,3,0,34,31,.302,,.721,13,1,1,2,0
Shuichi Murata,35,YOM,143,576,529,58,160,32,0,25,81,1,3,38,83,.302,,.858,21,5,2,2,0
Takahiro Arai,39,HIR,132,513,454,66,136,23,2,19,101,0,1,54,101,.300,,.857,12,1,0,4,1
Fumihito Haraguchi,24,HAN,107,364,318,38,95,16,0,11,46,1,2,26,52,.299,,.829,8,15,2,3,0
Yuhei Takai,32,YKU,108,436,412,44,122,20,0,7,55,7,1,21,51,.296,,.724,9,0,1,2,2
Tsuyoshi Nishioka,31,HAN,55,205,190,16,56,7,1,0,15,6,1,13,25,.295,,.688,5,2,0,0,1
Tomotaka Sakaguchi,31,YKU,141,607,526,74,155,14,5,0,39,7,4,63,66,.295,,.716,5,8,5,5,0
Brad Eldred,35,HIR,95,354,316,42,93,14,0,21,53,1,0,31,86,.294,,.900,8,4,0,3,0
Toshihiko Kuramoto,25,YKO,141,566,534,38,157,19,2,1,38,2,3,22,98,.294,,.665,13,2,5,3,0
Yohei Oshima,30,CNI,143,656,599,80,175,27,9,3,27,26,12,46,69,.292,,.730,3,6,4,1,1
Yoshihiro Maru,27,HIR,143,652,557,98,162,30,8,20,90,23,9,84,107,.291,,.870,9,7,1,3,1
Ryuhei Matsuyama,30,HIR,103,275,254,34,74,10,2,10,41,0,0,20,29,.291,,.806,4,0,0,1,1
Toshiro Miyazaki,27,YKO,101,335,302,31,88,16,0,11,36,0,0,25,30,.291,,.815,12,8,0,0,0
Ricardo Nanita,35,CNI,92,340,319,32,91,16,0,8,35,0,1,15,52,.285,,.728,9,2,0,4,0
Masayuki Kuwahara,22,YKO,133,522,462,80,131,23,2,11,49,19,11,38,93,.284,,.769,5,14,8,0,0
Hisayoshi Chono,31,YOM,143,618,576,58,163,28,4,11,42,8,2,33,78,.283,,.729,7,5,1,3,0
Tomohiro Abe,27,HIR,115,291,259,23,73,12,4,6,33,7,0,19,64,.282,,.756,3,1,7,5,2
Takahiro Imanami,31,YKU,94,240,201,22,56,9,3,1,28,0,1,30,25,.279,,.739,3,2,3,4,0
Shun Takayama,23,HAN,134,530,494,48,136,23,5,8,65,5,4,27,109,.275,,.707,8,4,2,3,1
Dayan Viciedo,27,CNI,119,471,416,63,114,22,0,22,68,1,0,44,68,.274,,.838,13,8,0,3,0
Fumiya Hojo,21,HAN,122,438,385,44,105,25,1,5,33,6,0,38,91,.273,,.723,10,4,7,4,4
Takayuki Kajitani,27,YKO,107,450,396,69,108,20,4,18,56,26,7,49,110,.273,,.838,2,4,1,0,0
Hector Luna,36,HIR,67,268,243,35,66,8,1,5,34,6,0,22,47,.272,,.707,5,1,0,2,0
Wladimir Balentien,31,YKU,132,537,457,64,123,20,0,31,96,0,1,72,116,.269,,.885,19,3,0,5,2
Masahiko Morino,37,CNI,68,170,142,14,38,6,0,1,15,0,0,26,24,.268,,.719,1,2,0,0,0
Nobumasa Fukuda,27,CNI,89,306,270,28,72,8,0,10,37,0,1,28,42,.267,,.754,9,6,0,2,1
Masahiro Nakatani,23,HAN,64,163,154,18,41,7,0,4,14,1,1,8,49,.266,,.696,2,1,0,0,0
Kosuke Tanaka,26,HIR,143,679,581,102,154,17,3,13,39,28,19,77,119,.265,,.739,1,17,3,1,1
Jose Lopez,32,YKO,123,518,483,66,127,27,1,34,95,0,0,24,75,.263,,.833,12,4,0,7,0
Shota Sugiyama,25,CNI,104,311,269,26,70,11,3,3,27,1,2,30,60,.260,,.697,8,3,8,1,1
Garrett Jones,35,YOM,123,465,422,48,109,22,1,24,68,0,1,39,106,.258,,.813,10,4,0,0,0
Mauro Gomez,31,HAN,139,554,498,58,127,20,0,22,79,2,1,48,130,.255,,.753,13,5,0,3,3
Naomichi Nishiura,25,YKU,72,273,247,21,63,12,0,7,28,9,3,23,54,.255,,.706,3,0,2,1,0
Naomichi Donoue,27,CNI,131,507,456,38,116,25,3,6,46,1,1,27,69,.254,,.660,14,2,20,2,0
Luis Cruz,32,YOM,81,314,298,26,75,14,0,11,37,0,2,11,40,.252,,.690,7,2,0,3,0
Yoshiyuki Kamei,33,YOM,66,240,226,21,57,14,0,3,23,0,2,11,35,.252,,.641,7,0,3,0,0
Shuhei Takahashi,22,CNI,75,283,255,28,64,14,2,4,29,0,1,22,84,.251,,.688,7,4,1,1,0
Keiji Obiki,32,YKU,100,391,348,48,87,16,1,5,27,7,5,40,82,.250,,.671,5,0,2,1,0
Anderson Hernandez,33,CNI,64,256,233,25,58,12,0,5,26,1,1,17,61,.249,,.662,6,0,4,2,0
Ryosuke Hirata,28,CNI,118,494,416,61,103,24,1,14,73,4,2,72,89,.248,,.769,5,2,0,4,1
Masahiro Araki,38,CNI,93,321,289,25,71,8,1,1,16,13,0,15,39,.246,,.581,9,3,14,0,0
Kazuhiro Hatakeyama,33,YKU,45,190,163,15,40,10,0,1,18,0,1,26,24,.245,,.678,6,1,0,0,0
Akihisa Nishida,24,YKU,74,245,222,29,54,16,1,7,25,0,0,18,39,.243,,.722,5,1,4,0,2
Tsubasa Aizawa,28,HIR,83,220,197,18,47,7,0,7,26,1,1,14,42,.239,,.682,7,4,4,1,0
Takashi Toritani,35,HAN,143,533,449,49,106,16,1,7,36,13,3,75,80,.236,,.667,12,2,1,6,0
Itaru Hashimoto,26,YOM,74,259,219,27,51,15,1,2,20,7,3,20,45,.233,,.635,4,0,20,0,0
Yamato Maeda,28,HAN,111,259,229,24,53,16,1,1,20,3,2,12,53,.231,,.594,9,1,15,2,0
Soichiro Tateoka,26,YOM,51,209,188,15,43,6,1,2,9,9,3,10,31,.229,,.589,1,5,6,0,0
Yasutaka Tobashira,26,YKO,124,393,367,25,83,8,0,2,23,0,0,20,63,.226,,.532,10,1,4,1,4
Elian Herrera,31,YKO,79,274,257,30,56,12,2,5,33,2,1,13,57,.218,,.597,3,1,3,0,0
Atsushi Fujii,35,CNI,87,187,167,15,36,5,1,3,19,0,0,12,45,.216,,.577,3,0,6,2,1
Taiga Egoshi,23,HAN,72,217,191,33,40,6,1,7,20,4,3,18,78,.209,,.645,2,3,2,3,0
Takehiro Ishikawa,29,YKO,95,329,297,35,62,8,2,2,14,6,4,18,67,.209,,.527,3,2,11,1,0
Hiroyuki Shirasaki,25,YKO,92,214,203,20,42,11,0,6,12,0,1,6,32,.207,,.590,8,3,2,0,0
Seiji Kobayashi,27,YOM,129,458,398,27,81,12,1,4,35,2,1,36,76,.204,,.544,10,4,19,1,5
Yoshiyuki Ishihara,36,HIR,106,289,243,19,49,7,0,0,17,4,1,29,54,.202,,.526,8,4,12,1,5
Yuhei Nakamura,26,YKU,106,378,321,24,60,14,0,3,37,2,0,31,47,.187,,.525,9,6,14,6,4
Iori Katsura,24,CNI,59,164,143,7,26,5,0,3,11,0,0,11,38,.182,,.528,3,2,7,1,2
