name,age,team,game,pa,ab,run,hit,2b,3b,hr,rbi,sb,cs,bb,so,ba,obp,ops,dp,hbp,sh,sf,ibb
Dayan Viciedo,29,CNI,135,582,512,91,178,26,1,26,99,3,4,51,61,.348,,.974,24,15,0,4,4
Hayato Sakamoto,29,YOM,109,502,441,87,152,27,2,18,67,9,5,61,83,.345,,.962,4,0,0,0,10
Ryosuke Hirata,30,CNI,138,568,493,83,162,26,5,9,55,8,7,67,69,.329,,.866,7,3,2,3,4
Nori Aoki,36,YKU,127,567,495,85,162,37,3,10,67,3,4,51,48,.327,,.884,13,19,0,2,1
Fumiya Hojo,23,HAN,62,266,239,34,77,8,1,1,20,1,0,19,32,.322,,.747,7,1,4,3,0
Zoilo Almonte,29,CNI,132,546,498,56,160,37,0,15,77,1,1,44,95,.321,,.861,16,1,0,3,1
Seiya Suzuki,23,HIR,124,520,422,86,135,32,2,30,94,4,4,88,116,.320,,1.057,4,5,0,5,2
Toshiro Miyazaki,29,YKO,142,590,551,71,175,34,0,28,71,0,0,38,45,.318,,.894,16,1,0,0,3
Yuhei Takai,34,YKU,125,482,446,50,142,19,1,11,67,6,1,33,62,.318,,.805,13,1,0,2,5
Tomotaka Sakaguchi,33,YKU,139,595,508,64,161,22,4,3,37,9,7,75,60,.317,,.800,15,3,7,2,5
Tetsuto Yamada,25,YKU,140,637,524,130,165,30,4,34,89,33,4,106,119,.315,,1.014,8,4,0,3,5
Neftali Soto,29,YKO,107,459,416,74,129,16,0,41,95,0,1,29,100,.310,,1.008,5,9,0,5,2
Ryoma Nishikawa,23,HIR,107,361,327,44,101,22,3,6,46,5,3,27,51,.309,,.814,4,2,4,1,3
Kazuma Okamoto,22,YOM,143,616,540,82,167,26,0,33,100,2,1,72,120,.309,,.935,11,4,0,0,1
Yoshio Itoi,36,HAN,119,509,419,60,129,24,0,16,68,22,3,77,63,.308,,.900,9,8,0,5,4
Yoshihiro Maru,29,HIR,125,566,432,109,132,22,0,39,97,10,10,130,130,.306,,1.096,5,3,0,1,8
Tsubasa Aizawa,30,HIR,106,377,315,42,96,18,1,13,42,0,0,39,56,.305,,.893,6,14,5,4,5
Ryuhei Matsuyama,32,HIR,124,446,397,46,120,25,2,12,74,2,0,42,46,.302,,.834,10,2,0,5,4
Yoshitomo Tsutsugo,26,YKO,139,580,495,77,146,33,1,38,89,0,0,80,107,.295,,.989,10,2,0,3,7
Hisayoshi Chono,33,YOM,116,426,383,49,111,16,0,13,52,3,2,41,69,.290,,.793,5,1,0,1,4
Jose Lopez,34,YKO,110,459,441,46,127,23,0,26,77,0,0,16,58,.288,,.831,12,1,0,1,1
Kento Itohara,25,HAN,143,637,531,79,152,29,4,1,35,6,4,86,73,.286,,.752,5,7,9,4,1
Kyohei Kamezawa,29,CNI,110,206,185,21,53,2,2,0,8,5,3,17,21,.286,,.669,2,1,3,0,2
Takayoshi Noma,25,HIR,126,447,405,64,116,14,7,5,46,17,10,30,69,.286,,.736,2,6,4,2,0
Casey McGehee,35,YOM,132,547,499,65,142,28,0,21,84,2,0,41,92,.285,,.803,12,1,0,6,1
Shinnosuke Shigenobu,25,YOM,60,185,167,24,47,7,5,2,13,6,4,11,38,.281,,.743,1,0,6,1,0
Kosuke Fukudome,41,HAN,123,499,414,57,116,26,2,14,72,2,1,73,90,.280,,.843,10,5,0,7,2
Efren Navarro,32,HAN,66,225,203,18,56,11,0,3,25,0,0,20,55,.276,,.717,5,1,0,1,0
Yohei Oshima,32,CNI,141,645,588,92,161,20,7,7,57,21,9,47,80,.274,,.697,2,4,1,5,2
Yusuke Oyama,23,HAN,117,378,347,48,95,19,4,11,48,5,3,26,54,.274,,.773,14,2,1,2,0
Wladimir Balentien,33,YKU,142,602,514,72,138,22,0,38,131,1,1,85,121,.268,,.904,15,0,0,3,5
Takumi Oshiro,25,YOM,83,202,185,19,49,12,0,4,17,0,1,15,46,.265,,.715,3,0,2,0,3
Kosuke Tanaka,28,HIR,143,675,572,92,150,19,10,10,60,32,13,75,118,.262,,.745,6,17,6,5,3
Nobumasa Fukuda,29,CNI,133,487,440,50,115,22,1,13,63,0,0,37,119,.261,,.727,13,5,0,5,1
Masayuki Kuwahara,24,YKO,127,421,379,57,99,24,5,9,26,17,3,32,71,.261,,.746,3,3,7,0,1
Shingo Kawabata,30,YKU,97,334,297,22,77,9,1,3,31,1,0,32,37,.259,,.663,11,3,1,1,2
Ryutaro Umeno,27,HAN,132,455,386,45,100,27,1,8,47,5,1,39,67,.259,,.724,6,1,28,1,3
Yoshiyuki Kamei,35,YOM,123,461,422,47,107,20,0,13,49,4,0,36,70,.254,,.708,6,2,0,1,2
Shuhei Takahashi,24,CNI,128,477,433,35,110,26,2,11,69,0,0,30,89,.254,,.704,9,3,8,3,1
Naoki Yoshikawa,23,YOM,92,355,316,51,80,16,3,4,29,11,4,19,61,.253,,.665,5,5,13,2,0
Naomasa Yokawa,26,HAN,75,299,274,27,69,16,5,6,48,5,0,17,76,.252,,.723,7,7,0,1,1
Kazuki Kamizato,24,YKO,86,273,247,31,62,14,3,5,21,15,9,19,68,.251,,.705,4,3,4,0,1
Shinnosuke Abe,39,YOM,95,223,198,22,49,6,0,11,46,0,0,21,55,.247,,.769,6,2,1,1,2
Hayata Ito,29,HAN,96,172,150,17,37,7,2,1,13,0,0,20,41,.247,,.675,1,0,2,0,0
Dai-Kang Yang,31,YOM,87,276,253,24,62,12,2,10,37,2,2,17,72,.245,,.724,7,2,3,1,1
Alex Guerrero,31,YOM,82,323,287,34,70,17,0,15,40,2,3,29,62,.244,,.785,8,6,0,1,0
Yamato Maeda,30,YKO,113,435,394,54,96,24,3,2,27,10,6,24,73,.244,,.628,0,5,9,3,1
Xavier Batista,26,HIR,99,302,273,38,66,8,0,25,55,0,1,26,81,.242,,.854,6,1,0,2,4
Naomichi Nishiura,27,YKU,138,550,479,57,116,28,0,10,55,1,2,40,88,.242,,.673,10,8,20,3,1
Wilin Rosario,29,HAN,75,302,281,28,68,13,0,8,40,0,1,17,71,.242,,.658,12,1,0,3,0
Atsushi Fujii,37,CNI,96,162,145,21,35,8,0,3,30,0,0,12,36,.241,,.649,1,0,0,5,1
Shunta Tanaka,24,YOM,99,261,228,20,55,6,3,2,12,6,0,23,41,.241,,.631,7,0,10,0,0
Tomohiro Abe,29,HIR,72,252,220,32,52,11,4,4,24,7,1,21,60,.236,,.683,1,2,7,2,3
Yota Kyoda,24,CNI,143,632,578,73,136,15,7,4,44,20,10,19,111,.235,,.572,12,6,26,3,0
Ryosuke Kikuchi,28,HIR,139,642,557,85,130,27,1,13,60,10,2,51,111,.233,,.656,5,3,30,1,2
Toshihiko Kuramoto,27,YKO,85,235,228,11,53,7,0,1,14,1,2,6,51,.232,,.527,5,0,0,1,0
Takashi Toritani,37,HAN,121,261,220,15,51,11,0,1,22,1,1,34,37,.232,,.629,6,1,3,3,3
Masahiro Nakatani,25,HAN,77,245,222,24,51,6,2,5,26,0,1,17,65,.230,,.629,5,2,1,3,2
Masato Matsui,30,CNI,92,260,218,18,50,7,1,2,22,0,0,30,51,.229,,.622,5,2,7,3,9
Shunsuke Fujikawa,30,HAN,87,200,183,25,41,5,1,2,21,1,0,11,29,.224,,.563,4,0,6,0,0
Seiji Kobayashi,29,YOM,119,313,265,22,58,9,0,2,26,0,0,27,58,.219,,.575,8,4,16,1,5
Tatsuhiro Shibata,24,YKO,113,265,224,32,49,6,0,3,13,2,1,30,45,.219,,.610,3,5,6,0,2
Yuhei Nakamura,28,YKU,123,401,341,32,72,9,1,5,26,2,0,31,39,.211,,.572,7,5,22,2,3
Kai Ueda,22,HAN,104,243,198,29,38,1,0,0,1,19,2,25,55,.192,,.486,5,2,18,0,0
Hiroki Minei,27,YKO,91,230,209,10,37,7,0,5,25,0,0,6,56,.177,,.510,9,8,6,1,2
